module gitlab.com/firelizzard/go-script

go 1.22.1

require (
	github.com/ergochat/readline v0.1.2
	github.com/fatih/color v1.17.0
	github.com/spf13/cobra v1.8.1
	golang.org/x/tools v0.20.0
)

require (
	github.com/davecgh/go-spew v1.1.1 // indirect
	github.com/inconshreveable/mousetrap v1.1.0 // indirect
	github.com/mattn/go-colorable v0.1.13 // indirect
	github.com/mattn/go-isatty v0.0.20 // indirect
	github.com/pmezard/go-difflib v1.0.0 // indirect
	github.com/spf13/pflag v1.0.5 // indirect
	golang.org/x/sync v0.7.0 // indirect
	golang.org/x/sys v0.19.0 // indirect
	golang.org/x/text v0.9.0 // indirect
	gopkg.in/yaml.v3 v3.0.1 // indirect
)

require (
	github.com/alecthomas/participle/v2 v2.1.1
	github.com/stretchr/testify v1.9.0
	golang.org/x/exp v0.0.0-20240404231335-c0f41cb1a7a0
	golang.org/x/mod v0.17.0 // indirect
)
